{
  "type": "service_account",
  "project_id": "c3dispatch-b16dc",
  "private_key_id": "0789d59063953c6e61301bf88c941d0431332075",
  "private_key": "-----BEGIN PRIVATE KEY-----\nMIIEvAIBADANBgkqhkiG9w0BAQEFAASCBKYwggSiAgEAAoIBAQC1qLNJKSynk6e4\n8jyxZf5UOkXZZGjvD8Jlw5C0yNngEnjzO4U1AUDPlJQPWCC+v2ofCbwFD13IhGKd\n3aHNinGDY6TbkLV2oQsICLUQypOhn1gR/wy0OycOUlaNwQMI29zlzfccdQur9gK6\nfyb69R7WsUKZ49gVYFMJ080YqCRlkvqwuXIJqlxXP7kdhDsX61JKgmGgWM13ryvD\nCqJsDXpansC+Zv705ttlLK8S1Cgnl5UCnfY+beQEunGv4kO9Lw3BKxnd7mJ126sG\nbhPIdWUAdmOmH09ydxZTHGAtFoB3Uo1wt4tm8oKQ91F7JaEkEumat3wErr6m+nEy\nnjyCQZ5vAgMBAAECggEABgZNx9/fNMGPXvFdtO5yhF2YYnDTkBYgNtrJCk3c9/L0\n4vA25z6e5SOC041zLJBRlyzt+Ob9D8DgOmcWzifIwvhDh+qhMgl+Qap0QtXNFp+f\nvp0MUU/i6DUv3KypiposFc0CZIW3OOFETuYXp1wIxUsEr/DgAjl7F4jYNPiimGG8\niJrYxWiws7q8yLjlkLgGUIQzeRro7EDOuyBHMOm4MK+y5HEkB978CoKs/ZeZyuWk\nEVZyYJfHCp2VwqT48m53KyWjyeGbFRQVTZijzg/iOpCSpTnH9c5A8G57KUVdaApG\ncj6lftGlCylds7mBOS1DxSz8QGTeuAJZkbkDUyYn4QKBgQD7cCAxAa2hQkH6CO3V\nVZJjqnBw4kDl8HVse5PytWkTat58yQ5FLnZcVyO9+NCn8bO3s8myPQQyCt0cpY9B\ni9sONhB83kay2o0zR6vUbYmvOzWjLoNHFgcjNL++NjK6ymPI5JsJVURoB0LttfhB\nDkh+anAINYq9FsA3PSpGAPaNzwKBgQC49Hdn/K9GmsySF6Dnt+m928iuVgvjJqz/\nxdfRyfgTBxXEJd54hbdaTqwC6gGwUyq2+Oe7ugS9adxYfOYquJyKVi7wNZyeY4Rd\n/RKHHqcgXqEDoH0Xx8VQJRW3fSiYVyptF2/epmw4ejoWutjQT3JS36CBIfx6EamF\ngfUqIi+tYQKBgHaAHrvaBaHVn1Ce+rArl0Wfo0SgbWOxUzYge9bMhswe9uKqwy35\nutDERNUYugYc1M2ET0/Qj/ShyBnjMUP8DO6CrnybKYjLlfaQFbyVL2nFpv7UQgyz\npgOCrceQtZHxJtwcWbEpXYcFvRZZR7opaCMkOM61pUB+w3KFQjIh7BFjAoGAb3pB\n4jZmOssg1ElTnXa3dszbB2ErpwzvpvZLX9I5KNbTYrdkgQYvfkn+2X7L58go7cHW\ngsrbAoOk4NzfKg69o4/QmM3niXv4E2Ju4WwzVYpTyEjaPRQWtHi1vzO73R5knv5K\nWku63Mum6X5TIjNQd+z74/llIPo2UBcFexDB5eECgYBwaIElxzldynAYorJeH9eT\nzMCUYw/I9xjS81VP2HpiRFjYB4ewFPITmWJ8e5zCFxM7tYEua1DZeyjfEwYVuXyP\nBYxwL840403BjNaXQbNIota0W0Cvl7bm2OnyXnVF9SIQT0xS0M/n4WDX8yZWsAKE\n7Wp/+i4M3AW/Qeah7cW9Bw==\n-----END PRIVATE KEY-----\n",
  "client_email": "firebase-adminsdk-eg541@c3dispatch-b16dc.iam.gserviceaccount.com",
  "client_id": "102819724885446240779",
  "auth_uri": "https://accounts.google.com/o/oauth2/auth",
  "token_uri": "https://accounts.google.com/o/oauth2/token",
  "auth_provider_x509_cert_url": "https://www.googleapis.com/oauth2/v1/certs",
  "client_x509_cert_url": "https://www.googleapis.com/robot/v1/metadata/x509/firebase-adminsdk-eg541%40c3dispatch-b16dc.iam.gserviceaccount.com"
}
